## Interface: 70200
## Title: oUF
## Author: Haste, lightspark, p3lim, Rainrider
## Version: 7.0.9
## Notes: Unit frame framework. Does nothing by itself.
## OptionalDeps: Clique
## X-oUF: oUF

## X-Curse-Project-ID: 21187
## X-WoWI-ID: 9994

oUF.xml
